…
_Skew_ and _kurtosis_ are two summary measures of the shape of a distribution. Roughly, skew measures how asymmetric a distribution is and kurtosis measures how peaked or spiky it is. The E1701 package has a couple of functions to calculate these numbers for us. Let's do that for Linda and Jennifer.

```{r}
babynames %>% 
  filter(sex == "F", 
         name %in% c("Linda", "Jennifer"))  %>%
  group_by(name) %>% 
  summarize(kurt = e1071::kurtosis(prop, na.rm = TRUE), 
            skew = e1071::skewness(prop, na.rm = TRUE))
```

- Q5. Do this summary calculation with the `top_20` object you created, so you get a table that looks something like this:

```{r}
# A tibble: 144 x 3
#   name      kurt     skew
#   <chr>    <dbl>    <dbl>
# 1 Abigail -1.42  -0.183  
# 2 Addison -1.66  -0.369  
# 3 Alexis  -1.43  -0.00915
# 4 Alice   -0.105  0.531  
# 5 Alyssa  -1.23  -0.507  
# 6 Amanda  -1.59  -0.169  
# 7 Amber   -1.28  -0.217  
# 8 Amelia  -1.88   0.202  
# 9 Amy     -1.19   0.381  
# 10 Angela  -1.11  -0.341  
# … with 134 more rows
```
…
