…
### B. Tidy the Election Data 

```{r }
results_df
```

- Make a tibble with just the local-level results for the Presidential race, for Trump and Biden only. (Hint: exclude state-level results by filtering out rows whose `id` is 0. Exclude other candidates by filtering out rows where `mpc` is not 1).
- Select the `fips5`, `lname`, and `votes` columns.
- Add up the votes Trump and Biden received within each county. Your table should look something like this:

```r

# A tibble: 6,310 x 3
# Groups:   fips5 [3,155]
   fips5 lname votes
   <chr> <chr> <int>
 1 01001 Biden  7450
 2 01001 Trump 19764
 3 01003 Biden 24344
 4 01003 Trump 83055
 5 01005 Biden  4772
 6 01005 Trump  5605
 7 01007 Biden  1982
 8 01007 Trump  7508
 9 01009 Biden  2627
10 01009 Trump 24595
# … with 6,300 more rows

```

(If you have a more recent vote total file, the numbers may look different.)

- Widen the data so that Trump and Biden are their own columns, with their votes in each row. Calculate the difference between the two, the winner in each county, and the two-party share for each candidate. Finally, rename `fips5` to `fips`. Your table should look like this:

```r

# A tibble: 3,155 x 7
# Groups:   fips [3,155]
   fips  Biden Trump  diff r_2share d_2share winner
   <chr> <int> <int> <int>    <dbl>    <dbl> <chr> 
 1 01001  7450 19764 12314    0.726   0.274  Trump 
 2 01003 24344 83055 58711    0.773   0.227  Trump 
 3 01005  4772  5605   833    0.540   0.460  Trump 
 4 01007  1982  7508  5526    0.791   0.209  Trump 
 5 01009  2627 24595 21968    0.903   0.0965 Trump 
 6 01011  3439  1143 -2296    0.249   0.751  Biden 
 7 01013  3953  5448  1495    0.580   0.420  Trump 
 8 01015 15118 34964 19846    0.698   0.302  Trump 
 9 01017  6356  8748  2392    0.579   0.421  Trump 
10 01019  1619 10562  8943    0.867   0.133  Trump 
# … with 3,145 more rows
…
